…
Problem 1
---------

1.  Preparation

``` r
## Load data and view
library(p8105.datasets)
data("instacart")
instacart
```

    ## # A tibble: 1,384,617 x 15
    ##    order_id product_id add_to_cart_ord… reordered user_id eval_set
    ##       <int>      <int>            <int>     <int>   <int> <chr>   
    ##  1        1      49302                1         1  112108 train   
    ##  2        1      11109                2         1  112108 train   
    ##  3        1      10246                3         0  112108 train   
    ##  4        1      49683                4         0  112108 train   
    ##  5        1      43633                5         1  112108 train   
    ##  6        1      13176                6         0  112108 train   
    ##  7        1      47209                7         0  112108 train   
    ##  8        1      22035                8         1  112108 train   
    ##  9       36      39612                1         0   79431 train   
    ## 10       36      19660                2         1   79431 train   
    ## # … with 1,384,607 more rows, and 9 more variables: order_number <int>,
    ## #   order_dow <int>, order_hour_of_day <int>,
    ## #   days_since_prior_order <int>, product_name <chr>, aisle_id <int>,
    ## #   department_id <int>, aisle <chr>, department <chr>
…
Problem 2
---------

1.  Preparation

``` r
## Load data and view
data("brfss_smart2010")
brfss_smart2010
```

    ## # A tibble: 134,203 x 23
    ##     Year Locationabbr Locationdesc Class Topic Question Response
    ##    <int> <chr>        <chr>        <chr> <chr> <chr>    <chr>   
    ##  1  2010 AL           AL - Jeffer… Heal… Over… How is … Excelle…
    ##  2  2010 AL           AL - Jeffer… Heal… Over… How is … Very go…
    ##  3  2010 AL           AL - Jeffer… Heal… Over… How is … Good    
    ##  4  2010 AL           AL - Jeffer… Heal… Over… How is … Fair    
    ##  5  2010 AL           AL - Jeffer… Heal… Over… How is … Poor    
    ##  6  2010 AL           AL - Jeffer… Heal… Fair… Health … Good or…
    ##  7  2010 AL           AL - Jeffer… Heal… Fair… Health … Fair or…
    ##  8  2010 AL           AL - Jeffer… Heal… Heal… Do you … Yes     
    ##  9  2010 AL           AL - Jeffer… Heal… Heal… Do you … No      
    ## 10  2010 AL           AL - Jeffer… Heal… Unde… Adults … Yes     
    ## # … with 134,193 more rows, and 16 more variables: Sample_Size <int>,
    ## #   Data_value <dbl>, Confidence_limit_Low <dbl>,
    ## #   Confidence_limit_High <dbl>, Display_order <int>,
    ## #   Data_value_unit <chr>, Data_value_type <chr>,
    ## #   Data_Value_Footnote_Symbol <chr>, Data_Value_Footnote <chr>,
    ## #   DataSource <chr>, ClassId <chr>, TopicId <chr>, LocationID <chr>,
    ## #   QuestionID <chr>, RESPID <chr>, GeoLocation <chr>
…
plot_excellent = df_excellent %>% 
  ggplot(aes(x = year, y = mean_value, color = state)) +
  geom_line(alpha = .5) +
  labs(title = "average value over time in different states", 
       y = "average value within a state")

df_excellent
```

    ## # A tibble: 443 x 3
    ## # Groups:   year [9]
    ##     year state mean_value
    ##    <int> <chr>      <dbl>
    ##  1  2002 "AK "       27.9
    ##  2  2002 "AL "       18.5
    ##  3  2002 "AR "       24.1
    ##  4  2002 "AZ "       24.1
    ##  5  2002 "CA "       22.7
    ##  6  2002 "CO "       23.1
    ##  7  2002 "CT "       29.1
    ##  8  2002 "DC "       29.3
    ##  9  2002 "DE "       20.9
    ## 10  2002 "FL "       25.7
    ## # … with 433 more rows
…
